created_at,email,company_name,company_guid,first_name,last_name
2013-06-21 04:42:23 UTC,louis.pennavaria@sungard.com,SunGard,76C6F530-40C1-446D-A5D5-A66E78605149,Louis,Pennavaria
2013-06-21 07:02:35 UTC,cori.caminiti@sungard.com,SunGard,76C6F530-40C1-446D-A5D5-A66E78605149,Cori,Caminiti
2013-06-21 07:08:38 UTC,preeti.joshi@sungard.com,SunGard,76C6F530-40C1-446D-A5D5-A66E78605149,Preeti,Joshi
2013-06-21 07:10:00 UTC,steven.sanchez@sungard.com,SunGard,76C6F530-40C1-446D-A5D5-A66E78605149,Steven,Sanchez
2013-06-21 07:26:18 UTC,soumya.gadagkar@sungard.com,SunGard,76C6F530-40C1-446D-A5D5-A66E78605149,Soumya,Gadagkar
2013-06-21 07:58:15 UTC,roger.clayton@sungard.com,SunGard,76C6F530-40C1-446D-A5D5-A66E78605149,Roger,Clayton
2013-06-21 08:21:17 UTC,colin.leslie@sungard.com,SunGard,76C6F530-40C1-446D-A5D5-A66E78605149,Colin,Leslie
2013-06-21 08:38:15 UTC,gordon.morrison@sungard.com,SunGard,76C6F530-40C1-446D-A5D5-A66E78605149,Gordon,Morrison
2013-06-21 09:34:30 UTC,swomack@ybs.co.uk,Yorkshire Building Society,DADB132A-6C78-46C8-AF38-B4A1AA621093,Steve ,Womack
2013-06-21 09:38:48 UTC,jodeyemi@ybs.co.uk,Yorkshire Building Society,DADB132A-6C78-46C8-AF38-B4A1AA621093,John ,Odeyemi
2013-06-21 09:40:00 UTC,rrangzeb@ybs.co.uk,Yorkshire Building Society,DADB132A-6C78-46C8-AF38-B4A1AA621093,Rizwan,Rangzeb
2013-06-21 09:44:56 UTC,stephen.robinson@sungard.com,SunGard,76C6F530-40C1-446D-A5D5-A66E78605149,Stephen,Robinson
2013-06-21 11:21:58 UTC,richard.lang@sungard.com,SunGard,76C6F530-40C1-446D-A5D5-A66E78605149,Richard,Lang
2013-06-21 11:28:05 UTC,najera.battle@sungard.com,SunGard,76C6F530-40C1-446D-A5D5-A66E78605149,Najera,Battle
2013-06-21 12:35:00 UTC,joe.boccella@sungard.com,SunGard,76C6F530-40C1-446D-A5D5-A66E78605149,Joe,Boccella
2013-06-21 12:52:17 UTC,peter.kline@sungard.com,SunGard,76C6F530-40C1-446D-A5D5-A66E78605149,Peter,Kline
2013-06-21 13:02:40 UTC,scott.peters@sungard.com,SunGard,76C6F530-40C1-446D-A5D5-A66E78605149,Scott,Peters
2013-06-21 13:13:39 UTC,susan.stein@sungard.com,SunGard,76C6F530-40C1-446D-A5D5-A66E78605149,Susan,Stein
2013-06-21 13:19:41 UTC,marcos.barrera@ictxwavemedia.net,INTERFACING COMPANY OF TEXAS,4671D135-C28A-4175-B58F-B7A21754AECF,Marcos,Barrera
2013-06-21 13:22:02 UTC,santo.saporito@sungard.com,SunGard,76C6F530-40C1-446D-A5D5-A66E78605149,Santo,Saporito
2013-06-21 13:24:21 UTC,noc@ictxwavemedia.net,INTERFACING COMPANY OF TEXAS,4671D135-C28A-4175-B58F-B7A21754AECF,Ricardo,Gonzales
2013-06-21 13:25:55 UTC,Cathey.haynes@ictxwavemedia.net,INTERFACING COMPANY OF TEXAS,4671D135-C28A-4175-B58F-B7A21754AECF,Cathy,Haynes
2013-06-21 13:27:34 UTC,richard.evans@ictxwavemedia.net,INTERFACING COMPANY OF TEXAS,4671D135-C28A-4175-B58F-B7A21754AECF,Richard,Evans
2013-06-21 13:47:22 UTC,eric.nachimson@sungard.com,SunGard,76C6F530-40C1-446D-A5D5-A66E78605149,Eric,Nachimson
2013-06-21 14:33:09 UTC,mike.mccool@sungard.com,SunGard,76C6F530-40C1-446D-A5D5-A66E78605149,Mike,Mccool
2013-06-21 14:58:13 UTC,jammes.valencia@sungard.com,SunGard,76C6F530-40C1-446D-A5D5-A66E78605149,Jammes,Valencia
2013-06-21 15:05:19 UTC,richard.calder@sungard.com,SunGard,76C6F530-40C1-446D-A5D5-A66E78605149,Richard,Calder
2013-06-21 15:08:06 UTC,paul.allaway@sungard.com,SunGard,76C6F530-40C1-446D-A5D5-A66E78605149,Paul,Allaway
2013-06-21 15:17:06 UTC,melvin.england@sungard.com,SunGard,76C6F530-40C1-446D-A5D5-A66E78605149,Melvin,England
2013-06-21 15:20:39 UTC,cwess@fcsltd.com,FCS SOFTWARE SOLUTIONS LIMITED,2180E8E1-CB3F-41EB-9AB4-B741AAB67037,Chris,Wess
2013-06-21 15:55:08 UTC,alex.razarvin@gkservices.com,G&K SERVICES, INC,65309123-0BD2-4EF1-B720-08F612A12399,Aliex (Aliakesi),Razarvin
2013-06-21 16:22:00 UTC,tony.lucent@sungard.com,SunGard,76C6F530-40C1-446D-A5D5-A66E78605149,Tony,Lucent
2013-06-21 17:19:02 UTC,Ernesto.Alvarado@perkinelmer.com,CAMBRIDGESOFT CORPORATION,DB224AF8-E833-4121-B8EF-EEF1087884F0,Ernesto,Alvarado
2013-06-21 17:19:47 UTC,Richard.Coles@perkinelmer.com,CAMBRIDGESOFT CORPORATION,DB224AF8-E833-4121-B8EF-EEF1087884F0,Richard,Coles
2013-06-21 17:21:06 UTC,Richard.Talbot@perkinelmer.com,CAMBRIDGESOFT CORPORATION,DB224AF8-E833-4121-B8EF-EEF1087884F0,Richard,Talbot
2013-06-21 17:43:25 UTC,jabc@dmshouston.com,DATA MANAGEMENT SOLUTIONS(200000302),2CD551A6-1580-458E-A41D-EFD71405A90D,John,ABC
2013-06-21 18:42:00 UTC,randall.szajna@sungard.com,SunGard,76C6F530-40C1-446D-A5D5-A66E78605149,Randall,Szajna
2013-06-21 19:01:04 UTC,ken.saathoff@sungard.com,SunGard,76C6F530-40C1-446D-A5D5-A66E78605149,Ken,Saathoff
2013-06-21 19:03:39 UTC,mark.simpson@sungard.com,SunGard,76C6F530-40C1-446D-A5D5-A66E78605149,Mark,Simpson
2013-06-21 19:34:27 UTC,jbauer@castlighthealth.com,CASTLIGHT HEALTH,E7F1A44C-F036-48E4-BF0B-AE153ABD6C67,Jeremy,Bauer
2013-06-21 19:37:55 UTC,sgopal@castlighthealth.com,CASTLIGHT HEALTH,E7F1A44C-F036-48E4-BF0B-AE153ABD6C67,Sakthivel,Gopal
2013-06-21 19:47:21 UTC,syalavarthy@castligthhealth.com,CASTLIGHT HEALTH,E7F1A44C-F036-48E4-BF0B-AE153ABD6C67,Srinivas ,Yalavarthy
2013-06-21 19:49:17 UTC,smurtuza@castlighthealth.com,CASTLIGHT HEALTH,E7F1A44C-F036-48E4-BF0B-AE153ABD6C67,Syed,Murtuza
2013-06-21 19:51:17 UTC,pyadav@castlighthealth.com,CASTLIGHT HEALTH,E7F1A44C-F036-48E4-BF0B-AE153ABD6C67,Pushpendra,Yadav
2013-06-21 19:52:33 UTC,smittapally@castlighthealth.com,CASTLIGHT HEALTH,E7F1A44C-F036-48E4-BF0B-AE153ABD6C67,Sankar ,Mittapally
2013-06-21 19:54:06 UTC,rambabu@castlighthealth.com,CASTLIGHT HEALTH,E7F1A44C-F036-48E4-BF0B-AE153ABD6C67,Rambabu ,Kella
2013-06-21 19:55:23 UTC,john.l.wild@hotmail.com,INNODATA SYNODEX LLC,70E549B2-582C-401E-805B-21D26F2D1B9F,Jonathan,Wild
2013-06-21 19:55:57 UTC,pravula@castlighthealth.com,CASTLIGHT HEALTH,E7F1A44C-F036-48E4-BF0B-AE153ABD6C67,Prashant ,Ravula
2013-06-21 19:58:26 UTC,ckolla@castlighthealth.com,CASTLIGHT HEALTH,E7F1A44C-F036-48E4-BF0B-AE153ABD6C67,Chiranjeevi ,Kolla
2013-06-21 20:00:23 UTC,amalwade@castlighthealth.com,CASTLIGHT HEALTH,E7F1A44C-F036-48E4-BF0B-AE153ABD6C67,Anand ,Malwade
2013-06-21 20:03:09 UTC,syarra@castlighthealth.com,CASTLIGHT HEALTH,E7F1A44C-F036-48E4-BF0B-AE153ABD6C67,Suresh ,Yarra
2013-06-21 20:06:19 UTC,skalangi@castlighthealth.com,CASTLIGHT HEALTH,E7F1A44C-F036-48E4-BF0B-AE153ABD6C67,Srikanth,Kalangi
2013-06-21 20:08:41 UTC,shiva@castlighthealth.com,CASTLIGHT HEALTH,E7F1A44C-F036-48E4-BF0B-AE153ABD6C67,Shiva,Guntu
2013-06-21 20:21:56 UTC,jwebb@1stglobal.com,1ST PARTNERS & CO., INC.,86A6FB7C-21EC-48AB-9F14-1B11ACF5D2D0,Jennie,Webb
2013-06-21 20:55:31 UTC,marcelo.quintero@sungard.com,SunGard,76C6F530-40C1-446D-A5D5-A66E78605149,Marcelo,Quintero
2013-06-21 21:07:51 UTC,amol.hawale@redknee.com,Redknee Inc - MTSA,568767F9-3F45-4070-AD30-41FC45B216C4,Amol,Hawale
2013-06-21 21:32:26 UTC,christopher.alden@sungard.com,SunGard,76C6F530-40C1-446D-A5D5-A66E78605149,Christopher,Alden
2013-06-21 22:31:38 UTC,erassistance@elmresources.com,Elm Resources,33237DE5-EE3E-42BB-862E-C198A19961B5,ER,Assistance 
2013-06-21 23:41:46 UTC,timothy.bowers@sungard.com,SunGard,76C6F530-40C1-446D-A5D5-A66E78605149,Timothy,Bowers
2013-06-22 02:00:24 UTC,anura.fernando@sungard.com,SunGard,76C6F530-40C1-446D-A5D5-A66E78605149,Anura,Fernando
2013-06-22 07:27:57 UTC,richard.lawrence@sungard.com,SunGard,76C6F530-40C1-446D-A5D5-A66E78605149,Richard,Lawrence
2013-06-22 09:01:15 UTC,sandeep.kumar@sungard.com,SunGard,76C6F530-40C1-446D-A5D5-A66E78605149,Sandeep,Kumar
2013-06-22 12:49:39 UTC,frank.kleininger@sungard.com,SunGard,76C6F530-40C1-446D-A5D5-A66E78605149,Frank,Kleininger
2013-06-22 15:21:29 UTC,kanchan.a.sharma@sungard.com,SunGard,76C6F530-40C1-446D-A5D5-A66E78605149,Kanchan,Sharma
2013-06-22 17:47:08 UTC,jeff.martinez@sungard.com,SunGard,76C6F530-40C1-446D-A5D5-A66E78605149,Jeff,Martinez
2013-06-22 18:57:44 UTC,rene.borromeo@sungard.com,SunGard,76C6F530-40C1-446D-A5D5-A66E78605149,Rene,Borromeo
2013-06-22 19:31:05 UTC,paul.akoury@sungard.com,SunGard,76C6F530-40C1-446D-A5D5-A66E78605149,Paul,Akoury
2013-06-22 20:38:13 UTC,francisco.villasenor@sungard.com,SunGard,76C6F530-40C1-446D-A5D5-A66E78605149,Francisco,Villasenor
2013-06-23 00:42:09 UTC,julio.lidalen@sungard.com,SunGard,76C6F530-40C1-446D-A5D5-A66E78605149,Julio,Lidalen
2013-06-23 00:49:12 UTC,welby.nalls@sungard.com,SunGard,76C6F530-40C1-446D-A5D5-A66E78605149,Welby,Nalls
2013-06-23 01:09:05 UTC,afsha.shaikh@sungard.com,SunGard,76C6F530-40C1-446D-A5D5-A66E78605149,Afsha,Shaikh
2013-06-23 01:17:26 UTC,cesar.bejarano@sungard.com,SunGard,76C6F530-40C1-446D-A5D5-A66E78605149,Cesar,Bejarano
2013-06-23 06:17:18 UTC,christopher.eaves@sungard.com,SunGard,76C6F530-40C1-446D-A5D5-A66E78605149,Christopher,Eaves
2013-06-23 12:41:08 UTC,melissa.herrington@sungard.com,SunGard,76C6F530-40C1-446D-A5D5-A66E78605149,Melissa,Herrington
2013-06-23 14:57:56 UTC,eric.king@sungard.com,SunGard,76C6F530-40C1-446D-A5D5-A66E78605149,Eric,King
2013-06-23 15:31:34 UTC,david.comerford@sungard.com,SunGard,76C6F530-40C1-446D-A5D5-A66E78605149,David,Comerford
2013-06-23 22:09:20 UTC,lee.mcfarland@sourcehov.com,SOURCECORP INC.,414C37AA-B46C-492C-A694-9737961EA4F8,Lee,McFarland
2013-06-23 23:27:29 UTC,Naveen.Mari@nhrmc.org,New Hanover Regional Medical Center,D1CD251C-7749-4944-989A-59D228C5E5BB,Naveen,Mari
2013-06-23 23:28:38 UTC,Kevin.javorsky@nhrmc.org,New Hanover Regional Medical Center,D1CD251C-7749-4944-989A-59D228C5E5BB,Kevin ,Javorsky
2013-06-23 23:57:24 UTC,samantha.pegan@sungard.com,SunGard,76C6F530-40C1-446D-A5D5-A66E78605149,Samantha,Pegan
2013-06-24 00:31:19 UTC,tim.plemmons@sungard.com,SunGard,76C6F530-40C1-446D-A5D5-A66E78605149,Tim,Plemmons
2013-06-24 05:17:22 UTC,juan.gonzalez@sungard.com,SunGard,76C6F530-40C1-446D-A5D5-A66E78605149,Juan,Gonzalez
2013-06-24 07:56:55 UTC,lynn.carty@sungard.com,SunGard,76C6F530-40C1-446D-A5D5-A66E78605149,Lynn,Carty
2013-06-24 08:21:15 UTC,mohammad.ali@sungard.com,SunGard,76C6F530-40C1-446D-A5D5-A66E78605149,Mohammad,Ali
2013-06-24 09:03:18 UTC,nalin.bhardwa@sungard.com,SunGard,76C6F530-40C1-446D-A5D5-A66E78605149,Nalin,Bhardwa
2013-06-24 09:05:00 UTC,andy.gardner@sungard.com,SunGard,76C6F530-40C1-446D-A5D5-A66E78605149,Andy,Gardner
2013-06-24 09:05:57 UTC,ashok.manna@sungard.com,SunGard,76C6F530-40C1-446D-A5D5-A66E78605149,Ashok,Manna
2013-06-24 09:22:35 UTC,mohammed.a.uddin@sungard.com,SunGard,76C6F530-40C1-446D-A5D5-A66E78605149,Mohammed,Uddin
2013-06-24 09:40:21 UTC,gurdeep.chana@sungard.com,SunGard,76C6F530-40C1-446D-A5D5-A66E78605149,Gurdeep,Chana
2013-06-24 10:39:44 UTC,mohammad.alam@sungard.com,SunGard,76C6F530-40C1-446D-A5D5-A66E78605149,Mohammad,Alam
2013-06-24 10:55:04 UTC,george.hendleman@sungard.com,SunGard,76C6F530-40C1-446D-A5D5-A66E78605149,George,Hendleman
2013-06-24 11:41:41 UTC,keith.moran@sungard.com,SunGard,76C6F530-40C1-446D-A5D5-A66E78605149,Keith,Moran
2013-06-24 11:44:30 UTC,stephen.pordon@sungard.com,SunGard,76C6F530-40C1-446D-A5D5-A66E78605149,Stephen,Pordon
2013-06-24 12:56:20 UTC,gayle.johnson@sungard.com,SunGard,76C6F530-40C1-446D-A5D5-A66E78605149,Gayle,Johnson
2013-06-24 13:06:31 UTC,brandon.bohyer@sungard.com,SunGard,76C6F530-40C1-446D-A5D5-A66E78605149,Brandon,Bohyer
2013-06-24 13:19:04 UTC,shane.erickson@sungard.com,SunGard,76C6F530-40C1-446D-A5D5-A66E78605149,Shane,Erickson
2013-06-24 13:26:54 UTC,dharam.prasad@sungard.com,SunGard,76C6F530-40C1-446D-A5D5-A66E78605149,Dharam,Prasad
2013-06-24 13:27:37 UTC,malcolm.williams@sungard.com,SunGard,76C6F530-40C1-446D-A5D5-A66E78605149,Malcolm,Williams
2013-06-24 13:31:50 UTC,aisha.akhtar@sungard.com,SunGard,76C6F530-40C1-446D-A5D5-A66E78605149,Aisha,Akhtar
2013-06-24 13:35:44 UTC,bakary.kamateh@sungard.com,SunGard,76C6F530-40C1-446D-A5D5-A66E78605149,Bakary,Kamateh
2013-06-24 13:50:29 UTC,megan.reynolds@sungard.com,SunGard,76C6F530-40C1-446D-A5D5-A66E78605149,Megan,Reynolds
2013-06-24 14:06:40 UTC,bradley.lowry@sungard.com,SunGard,76C6F530-40C1-446D-A5D5-A66E78605149,Bradley,Lowry
2013-06-24 14:21:40 UTC,catherine.ennis@sungard.com,SunGard,76C6F530-40C1-446D-A5D5-A66E78605149,Catherine,Ennis
2013-06-24 14:22:51 UTC,john.klinck@sungard.com,SunGard,76C6F530-40C1-446D-A5D5-A66E78605149,John,Klinck
2013-06-24 14:24:27 UTC,dana.gindville@sungard.com,SunGard,76C6F530-40C1-446D-A5D5-A66E78605149,Dana,Gindville
2013-06-24 14:34:48 UTC,eteecio.bussie@sungard.com,SunGard,76C6F530-40C1-446D-A5D5-A66E78605149,Eteecio,Bussie
2013-06-24 14:39:47 UTC,denise.dubree@sungard.com,SunGard,76C6F530-40C1-446D-A5D5-A66E78605149,Denise,Dubree
2013-06-24 14:54:57 UTC,dhiraj.poddar@sungard.com,SunGard,76C6F530-40C1-446D-A5D5-A66E78605149,Dhiraj,Poddar
2013-06-24 15:06:51 UTC,rob.colbeck@mcsnow.com,Mortgage Contracting Services, Inc.,8CCF83A5-54C2-47E2-94F2-8853D2E8295E,Rob,Colbeck
2013-06-24 15:21:49 UTC,kevin.erickson@sungard.com,SunGard,76C6F530-40C1-446D-A5D5-A66E78605149,Kevin,Erickson
2013-06-24 15:38:28 UTC,boopendran.sundaram@sungard.com,SunGard,76C6F530-40C1-446D-A5D5-A66E78605149,Boopendran,Sundaram
2013-06-24 15:39:52 UTC,samir.shukla@sungard.com,SunGard,76C6F530-40C1-446D-A5D5-A66E78605149,Samir,Shukla
2013-06-24 15:42:22 UTC,syam.ande@sungard.com,SunGard,76C6F530-40C1-446D-A5D5-A66E78605149,Syam,Ande
2013-06-24 15:42:45 UTC,fola.olatunji@sungard.com,SunGard,76C6F530-40C1-446D-A5D5-A66E78605149,Fola,Olatunji
2013-06-24 15:45:26 UTC,devika.pathiyil@sungard.com,SunGard,76C6F530-40C1-446D-A5D5-A66E78605149,Devika,Pathiyil
2013-06-24 15:49:51 UTC,rahulsharma.kishen@sungard.com,SunGard,76C6F530-40C1-446D-A5D5-A66E78605149,Rahulsharma,Kishen
2013-06-24 15:51:10 UTC,florin.nikollaj@sungard.com,SunGard,76C6F530-40C1-446D-A5D5-A66E78605149,Florin,Nikollaj
2013-06-24 15:53:25 UTC,jmastrud@instec-corp.com,INSURANCE INFORMATION TECHNOLOGIES, INC. (CLOUD),602C9126-46E3-4491-9A79-9CD6C0639DF6,Jack,Mastrud
2013-06-24 15:57:00 UTC,kmantz@instec-corp.com,INSURANCE INFORMATION TECHNOLOGIES, INC. (CLOUD),602C9126-46E3-4491-9A79-9CD6C0639DF6,Karen,Mantz
2013-06-24 16:02:26 UTC,pwhitfield@instec-corp.com,INSURANCE INFORMATION TECHNOLOGIES, INC. (CLOUD),602C9126-46E3-4491-9A79-9CD6C0639DF6,Pat,Whitfield
2013-06-24 16:19:15 UTC,david.bailey@sungard.com,SunGard,76C6F530-40C1-446D-A5D5-A66E78605149,David,Bailey
2013-06-24 16:40:40 UTC,gison@manageforce.com,MANAGEFORCE CORPORATION (Cloud),A1C36EDC-8596-4B27-9E8A-4F6FA4A50F55,George,Ison
2013-06-24 16:40:51 UTC,josh.nielson@sungard.com,SunGard,76C6F530-40C1-446D-A5D5-A66E78605149,Josh,Nielson
2013-06-24 16:49:07 UTC,ankita.nikam@sungard.com,SunGard,76C6F530-40C1-446D-A5D5-A66E78605149,Ankita,Nikam
2013-06-24 16:54:45 UTC,rondel.tooley@sungard.com,SunGard,76C6F530-40C1-446D-A5D5-A66E78605149,Rondel,Tooley
2013-06-24 17:06:21 UTC,msiconolfi@allianceicomm.com,Alliance ICommunications - MTSA,EC993250-D86C-46C0-9DD4-2ABE977309D7,Michael,Siconolfi
2013-06-24 17:07:01 UTC,mtrachy@allianceicomm.com,Alliance ICommunications - MTSA,EC993250-D86C-46C0-9DD4-2ABE977309D7,Mark,Trachy
2013-06-24 17:11:02 UTC,lauren.gallagher@sungard.com,SunGard,76C6F530-40C1-446D-A5D5-A66E78605149,Lauren,Gallagher
2013-06-24 17:15:01 UTC,kelly.foran@sungard.com,SunGard,76C6F530-40C1-446D-A5D5-A66E78605149,Kelly,Foran
2013-06-24 17:26:56 UTC,james.reeves@sungard.com,SunGard,76C6F530-40C1-446D-A5D5-A66E78605149,James,Reeves
2013-06-24 17:44:15 UTC,laine.kocher@sungard.com,SunGard,76C6F530-40C1-446D-A5D5-A66E78605149,Laine,Kocher
2013-06-24 17:48:18 UTC,jasmine.townsend@sungard.com,SunGard,76C6F530-40C1-446D-A5D5-A66E78605149,Jasmine,Townsend
2013-06-24 17:52:32 UTC,dave.hug@sungard.com,SunGard,76C6F530-40C1-446D-A5D5-A66E78605149,Dave,Hug
2013-06-24 18:13:18 UTC,luke.heverly@sungard.com,SunGard,76C6F530-40C1-446D-A5D5-A66E78605149,Luke,Heverly
2013-06-24 18:25:37 UTC,himaniah@sensata.com,Sensata / HCL,C1587D42-9EDD-4F17-B509-0A0E4C6EA100,Himani,Ahalawat
2013-06-24 18:27:22 UTC,vrao@sensata.com,Sensata / HCL,C1587D42-9EDD-4F17-B509-0A0E4C6EA100,Vikrant,Rao
2013-06-24 18:30:15 UTC,ali.adil@sungard.com,SunGard,76C6F530-40C1-446D-A5D5-A66E78605149,Ali,Adil
2013-06-24 19:20:39 UTC,aruberg@copic.com,Copic Insurance, Inc.,ED44C45E-8753-4FA9-B46A-F445806F64E2,Adam,Ruberg
2013-06-24 19:49:29 UTC,david.rosenblatt@sungard.com,SunGard,76C6F530-40C1-446D-A5D5-A66E78605149,David,Rosenblatt
2013-06-24 20:21:23 UTC,aditi.k@hcl.com,HCL Americas, INC. Adecco,ADFE6355-B008-45D6-B073-C7B1E1285C02,Aditi,Khatter
2013-06-24 20:22:53 UTC,ankur_sh@hcl.com,HCL Americas, INC. Adecco,ADFE6355-B008-45D6-B073-C7B1E1285C02,Ankur,Sharma
2013-06-24 20:23:51 UTC,anwarul.a@hcl.com,HCL Americas, INC. Adecco,ADFE6355-B008-45D6-B073-C7B1E1285C02,Anwarul,Abbasi
2013-06-24 20:24:50 UTC,gaurav.si@hcl.com,HCL Americas, INC. Adecco,ADFE6355-B008-45D6-B073-C7B1E1285C02,Gaurav,Singh
2013-06-24 20:26:55 UTC,HarvinderRehal@hcl.com,HCL Americas, INC. Adecco,ADFE6355-B008-45D6-B073-C7B1E1285C02,HARVINDER  SINGH , SINGH 
2013-06-24 20:28:03 UTC,HemantDimri@hcl.com,HCL Americas, INC. Adecco,ADFE6355-B008-45D6-B073-C7B1E1285C02,HEMANT,DIMRI 
2013-06-24 20:29:10 UTC,karan.m@hcl.com,HCL Americas, INC. Adecco,ADFE6355-B008-45D6-B073-C7B1E1285C02,Karan,Makol
2013-06-24 20:30:17 UTC,KundanK@hcl.com,HCL Americas, INC. Adecco,ADFE6355-B008-45D6-B073-C7B1E1285C02,Kundan,Kumar
2013-06-24 20:31:14 UTC,kushagr.m@hcl.com,HCL Americas, INC. Adecco,ADFE6355-B008-45D6-B073-C7B1E1285C02,Kushagr,Mudgil 
2013-06-24 20:32:05 UTC,ravindra.si@hcl.com,HCL Americas, INC. Adecco,ADFE6355-B008-45D6-B073-C7B1E1285C02,Ravindra,Singh
2013-06-24 20:33:10 UTC,sachin.si@hcl.com,HCL Americas, INC. Adecco,ADFE6355-B008-45D6-B073-C7B1E1285C02,Sachin,Singh
2013-06-24 20:34:05 UTC,srivastavs@hcl.com,HCL Americas, INC. Adecco,ADFE6355-B008-45D6-B073-C7B1E1285C02,Shweta,Srivastav
2013-06-24 20:35:05 UTC,simranbhatia@hcl.com,HCL Americas, INC. Adecco,ADFE6355-B008-45D6-B073-C7B1E1285C02,Simran,Bhatia
2013-06-24 20:36:03 UTC,sunny.k@hcl.com,HCL Americas, INC. Adecco,ADFE6355-B008-45D6-B073-C7B1E1285C02,Sunny,Koul
2013-06-24 20:37:49 UTC,upender.t@hcl.com,HCL Americas, INC. Adecco,ADFE6355-B008-45D6-B073-C7B1E1285C02,Upender,Thakur
2013-06-24 21:48:06 UTC,BalwinderSM@hcl.com,HCL Americas, INC. Adecco,ADFE6355-B008-45D6-B073-C7B1E1285C02,Balwinder,Makkar
2013-06-24 21:49:12 UTC,dimitri.tadros@sungard.com,SunGard,76C6F530-40C1-446D-A5D5-A66E78605149,Dimitri,Tadros
2013-06-24 22:03:51 UTC,william.bush@sungard.com,SunGard,76C6F530-40C1-446D-A5D5-A66E78605149,William,Bush
2013-06-24 22:35:09 UTC,harini.vaidyanathan@sungard.com,SunGard,76C6F530-40C1-446D-A5D5-A66E78605149,Harini,Vaidyanathan
2013-06-25 03:19:42 UTC,chris.hambleton@sungard.com,SunGard,76C6F530-40C1-446D-A5D5-A66E78605149,Chris,Hambleton
2013-06-25 06:03:56 UTC,richard.senez@sungard.com,SunGard,76C6F530-40C1-446D-A5D5-A66E78605149,Richard,Senez
2013-06-25 06:53:39 UTC,dave.wright@sungard.com,SunGard,76C6F530-40C1-446D-A5D5-A66E78605149,Dave,Wright
2013-06-25 08:16:42 UTC,abhishek.k.kumar@sungard.com,SunGard,76C6F530-40C1-446D-A5D5-A66E78605149,Abhishek,Kumar
2013-06-25 08:18:27 UTC,sandeep.shet@sungard.com,SunGard,76C6F530-40C1-446D-A5D5-A66E78605149,Sandeep,Shet
2013-06-25 10:04:34 UTC,paul.henry@sungard.com,SunGard,76C6F530-40C1-446D-A5D5-A66E78605149,Paul,Henry
2013-06-25 10:13:48 UTC,nigel.rogers@sungard.com,SunGard,76C6F530-40C1-446D-A5D5-A66E78605149,Nigel,Rogers
2013-06-25 10:31:55 UTC,derrick.johnston@sungard.com,SunGard,76C6F530-40C1-446D-A5D5-A66E78605149,Derrick,Johnston
2013-06-25 10:57:12 UTC,julian.parker@sungard.com,SunGard,76C6F530-40C1-446D-A5D5-A66E78605149,Julian,Parker
2013-06-25 11:49:28 UTC,tony.brown@sungard.com,SunGard,76C6F530-40C1-446D-A5D5-A66E78605149,Tony,Brown
2013-06-25 12:31:12 UTC,nicola.laycock@hml.co.uk,Homeloan Management Limited,7BC6C8A2-A7A6-4227-824A-A38A5CC25116,Nicola,Laycock
2013-06-25 13:05:04 UTC,scott.steele@sungard.com,SunGard,76C6F530-40C1-446D-A5D5-A66E78605149,Scott,Steele
2013-06-25 13:07:08 UTC,david.finley@sungard.com,SunGard,76C6F530-40C1-446D-A5D5-A66E78605149,David,Finley
2013-06-25 13:12:06 UTC,christopher.krulak@sungard.com,SunGard,76C6F530-40C1-446D-A5D5-A66E78605149,Christopher,Krulak
2013-06-25 13:33:12 UTC,chester.sheridan@sungard.com,SunGard,76C6F530-40C1-446D-A5D5-A66E78605149,Chester,Sheridan
2013-06-25 14:02:47 UTC,youngshan.sheng@sungard.com,SunGard,76C6F530-40C1-446D-A5D5-A66E78605149,Youngshan,Sheng
2013-06-25 14:24:29 UTC,m.hoard8110@gmail.com,PC CONNECTION, INC.,E7041904-09E7-4B22-8506-6E0E0F3002A3,Demo,User
2013-06-25 14:51:25 UTC,tjoseph@washlaundry.com,WASH MULTIFAMILY LAUNDRY SYSTEMS, LLC,4EFF5535-2368-46F2-BA58-878C2ABECB48,Tomy,Joseph
2013-06-25 14:52:52 UTC,skyler.schiewe@sungard.com,SunGard,76C6F530-40C1-446D-A5D5-A66E78605149,Skyler,Schiewe
2013-06-25 14:55:34 UTC,keithm@washlaundry.com,WASH MULTIFAMILY LAUNDRY SYSTEMS, LLC,4EFF5535-2368-46F2-BA58-878C2ABECB48,Keith,MacLyman
2013-06-25 14:56:51 UTC,lwilliamson@washlaundry.com,WASH MULTIFAMILY LAUNDRY SYSTEMS, LLC,4EFF5535-2368-46F2-BA58-878C2ABECB48,Larry,Williamson
2013-06-25 15:00:30 UTC,paula.warfield@sungard.com,SunGard,76C6F530-40C1-446D-A5D5-A66E78605149,Paula,Warfield
2013-06-25 15:00:46 UTC,jeffreyg@buyseasons.com,BuySeasons.com,1DE9B140-BD24-4DF5-8B42-BC62621EE6CE,Jeff,Gilgenbach
2013-06-25 15:01:13 UTC,sthursby@acs.com,ACS Services, Inc.,81C284CE-B04F-47D9-BAAE-D44AE1FCEF59,Scott,Thursby
2013-06-25 15:05:51 UTC,james.c.williams@sungard.com,SunGard,76C6F530-40C1-446D-A5D5-A66E78605149,James,Williams
2013-06-25 15:27:17 UTC,paul.drennan@sungard.com,SunGard,76C6F530-40C1-446D-A5D5-A66E78605149,Paul,Drennan
2013-06-25 15:36:16 UTC,luis.dominguez@sungard.com,SunGard,76C6F530-40C1-446D-A5D5-A66E78605149,Luis,Dominguez
2013-06-25 15:54:31 UTC,mharrington@connecture.com,Connecture, Inc.,96889732-869B-46AD-8370-B4E7B45A4313,Manquel,Harrington
2013-06-25 16:05:27 UTC,will.mccracken@sungard.com,SunGard,76C6F530-40C1-446D-A5D5-A66E78605149,Will,Mccracken
2013-06-25 16:34:42 UTC,tony.shepherd@sungard.com,SunGard,76C6F530-40C1-446D-A5D5-A66E78605149,Tony,Shepherd
2013-06-25 16:37:21 UTC,Joel.Duggar@westernunion.com,Western Union Financial Services Inc ? MTSA,F5BC98FD-886D-44AE-ACAF-96275AA40AF6,Joel,Duggar
2013-06-25 16:39:27 UTC,jacob.castoire@sungard.com,SunGard,76C6F530-40C1-446D-A5D5-A66E78605149,Jacob,Castoire
2013-06-25 16:42:46 UTC,bsrini@opsondemand.com,OPS ON DEMAND, INC.,5AB5F5BB-AA13-4106-A040-8C99AC1AAD5A,Srini ,Bala
2013-06-25 16:43:39 UTC,marty@mailforce.net,OPS ON DEMAND, INC.,5AB5F5BB-AA13-4106-A040-8C99AC1AAD5A,Marty,Lucich
2013-06-25 16:44:49 UTC,randy@opsondemand.com,OPS ON DEMAND, INC.,5AB5F5BB-AA13-4106-A040-8C99AC1AAD5A,Randy,Bigge
2013-06-25 16:51:13 UTC,mkilian@emoneyadvisor.com,EMONEY ADVISORS,711DCBE6-0FFC-4BE5-B56C-BC32DF8292FA,Michael,Kilian
2013-06-25 17:02:50 UTC,ram.iyer@sungard.com,SunGard,76C6F530-40C1-446D-A5D5-A66E78605149,Ram,Iyer
2013-06-25 17:20:05 UTC,jonathan.goodish@sungard.com,SunGard,76C6F530-40C1-446D-A5D5-A66E78605149,Jonathan,Goodish
2013-06-25 17:22:48 UTC,support@avtex.com,AVTEX SOLUTIONS,F61A44AD-4975-4F99-8562-6D371AB28FBC,Alert Logic,IDS Notification
2013-06-25 17:48:32 UTC,jgracz@peabodyenergy.com,Peabody Investments Corp.,44A6574F-AE90-49FD-B687-33F9D14A343E,Joe,Gracz
2013-06-25 17:49:31 UTC,rtucker@peabodyenergy.com,Peabody Investments Corp.,44A6574F-AE90-49FD-B687-33F9D14A343E,Randy,Tucker
2013-06-25 19:02:47 UTC,kostas.mantis@sungard.com,SunGard,76C6F530-40C1-446D-A5D5-A66E78605149,Kostas,Mantis
2013-06-25 19:05:36 UTC,jerome.lane@erau.edu,Embry Riddle Aeronautical University,630CC174-2204-4854-89AC-76E96E298A9B,Jerome,Lane
2013-06-25 19:50:58 UTC,hstanton@oppenheimerfunds.com,OPPENHEIMER FUNDS INC,592ECDD6-2338-4623-8810-231B28FECBFF,Henrietta,Stanton
2013-06-25 20:36:44 UTC,brian.decker@sungard.com,SunGard,76C6F530-40C1-446D-A5D5-A66E78605149,Brian,Decker
2013-06-25 20:42:01 UTC,fquinn@nextgen.com,Nextgen Healthcare,319B19EE-E982-4970-8170-BA51CE403D00,Fran,Quinn
2013-06-25 23:04:58 UTC,chris.nelson@sungard.com,SunGard,76C6F530-40C1-446D-A5D5-A66E78605149,Chris,Nelson
2013-06-26 00:40:36 UTC,dan.roberts@sungard.com,SunGard,76C6F530-40C1-446D-A5D5-A66E78605149,Dan,Roberts
2013-06-26 02:29:42 UTC,matthew.sargent@sungard.com,SunGard,76C6F530-40C1-446D-A5D5-A66E78605149,Matthew,Sargent
2013-06-26 03:00:53 UTC,anthony.riske@sungard.com,SunGard,76C6F530-40C1-446D-A5D5-A66E78605149,Anthony,Riske
2013-06-26 05:50:40 UTC,david.wise@sungard.com,SunGard,76C6F530-40C1-446D-A5D5-A66E78605149,David,Wise
2013-06-26 05:59:20 UTC,michael.rawlins@sungard.com,SunGard,76C6F530-40C1-446D-A5D5-A66E78605149,Michael,Rawlins
2013-06-26 06:43:03 UTC,andy.jefferies@sungard.com,SunGard,76C6F530-40C1-446D-A5D5-A66E78605149,Andy,Jefferies
2013-06-26 09:10:18 UTC,errol.lemard@sungard.com,SunGard,76C6F530-40C1-446D-A5D5-A66E78605149,Errol,Lemard
2013-06-26 09:22:48 UTC,paul.dodsworth@sungard.com,SunGard,76C6F530-40C1-446D-A5D5-A66E78605149,Paul,Dodsworth
2013-06-26 10:31:27 UTC,tomasz.pierzchala@sungard.com,SunGard,76C6F530-40C1-446D-A5D5-A66E78605149,Tomasz,Pierzchala
2013-06-26 10:38:08 UTC,mark.atkinson@sungard.com,SunGard,76C6F530-40C1-446D-A5D5-A66E78605149,Mark,Atkinson
2013-06-26 11:16:53 UTC,ritesh.jaglan@sungard.com,SunGard,76C6F530-40C1-446D-A5D5-A66E78605149,Ritesh,Jaglan
2013-06-26 11:23:26 UTC,michelle.bowdery@sungard.com,SunGard,76C6F530-40C1-446D-A5D5-A66E78605149,Michelle,Bowdery
2013-06-26 11:29:06 UTC,Laura@ovationwireless.com,OVATION WIRELESS MANAGEMENT (Cloud),CD7CE51E-F378-4EE5-A2BC-26D7ED08084F,Laura,Hearon
2013-06-26 13:14:34 UTC,pcampbell@interactions.net,Interactions,94CAAC30-68EE-41AF-8998-8E42D52AB54E,Paul,Campbell
2013-06-26 13:21:01 UTC,david.mcgowan@sungard.com,SunGard,76C6F530-40C1-446D-A5D5-A66E78605149,David,Mcgowan
2013-06-26 13:24:58 UTC,jeanne.kelley@sungard.com,SunGard,76C6F530-40C1-446D-A5D5-A66E78605149,Jeanne,Kelley
2013-06-26 13:34:52 UTC,bel9038@nyp.org,New York Presbyterian Hospital,8D1A9996-769E-49E5-87B6-82C578BCE289,Ben,Luke
2013-06-26 13:35:32 UTC,haj9016@nyp.org,New York Presbyterian Hospital,8D1A9996-769E-49E5-87B6-82C578BCE289,Hugh,Johnson
2013-06-26 13:36:04 UTC,omc9002@nyp.org,New York Presbyterian Hospital,8D1A9996-769E-49E5-87B6-82C578BCE289,Omar,Cedeno
2013-06-26 13:36:18 UTC,gayland.andrews@sungard.com,SunGard,76C6F530-40C1-446D-A5D5-A66E78605149,Gayland,Andrews
2013-06-26 13:46:23 UTC,nick.evans@abscanada.ca,AMERISOURCEBERGEN SPECIALTY GROUP CANADA CORPORATION.,5791ECD2-2D93-4C69-84D2-59E54B673CEB,Nick,Evans
2013-06-26 13:59:04 UTC,alan.willox@sungard.com,SunGard,76C6F530-40C1-446D-A5D5-A66E78605149,Alan,Willox
2013-06-26 14:46:09 UTC,mo.kim@symphonyteleca.com,SYMPHONY TELECA SERVICES, INC.,C1572AF0-61E9-404F-BA43-56F7384DF853,Mo,Kim
2013-06-26 15:00:04 UTC,david.forseman@sungard.com,SunGard Futures Systems,B0B0E524-DE94-42A0-9844-3B9BB256FAC2,david,foresman
2013-06-26 15:05:24 UTC,Binaya.m@hcl.com,Insituform / HCL,F9CD2720-8627-4201-B603-91009E860E9F,Binaya,Mahapatra
2013-06-26 15:21:09 UTC,steve.stamps@sungard.com,SunGard,76C6F530-40C1-446D-A5D5-A66E78605149,Steve,Stamps
2013-06-26 15:35:04 UTC,viewpoint.administrator-053D26BA-5C25-42CE-89CA-455C4D03D20A1@sungard.com,XEROX SERVICES (Cloud),053D26BA-5C25-42CE-89CA-455C4D03D20A,Trupthi,Ramesh
2013-06-26 15:46:29 UTC,mis@sptnet.com,GLOBAL RESOURCES MANAGEMENT GROUP, INC.,EFC88AC6-341D-465A-A677-D9D37B330E1F,Marc,Huber
2013-06-26 16:03:00 UTC,kukrejaa@hcl.com,Insituform / HCL,F9CD2720-8627-4201-B603-91009E860E9F,Ashish,Kukreja
2013-06-26 16:26:23 UTC,mhoard8110@gmail.com,BLACKSTONE ADMINISTRATIVE SERVICES PARTNERSHIP LP,83687101-9C1B-4F28-BE54-4600440138ED,Demo,User
2013-06-26 16:48:08 UTC,james.graefe@sungard.com,SunGard,76C6F530-40C1-446D-A5D5-A66E78605149,James,Graefe
2013-06-26 16:54:19 UTC,patrick.venieris@sungard.com,SunGard,76C6F530-40C1-446D-A5D5-A66E78605149,Patrick,Venieris
2013-06-26 16:56:09 UTC,clove@flyfrontier.com,FRONTIER AIRLINES(200000287),1701EC3A-0DFC-4BC4-BE84-63530F8514C2,Christopher,Love
2013-06-26 17:58:26 UTC,jonathan.lin@molinahealthcare.com,MOLINA HEALTHCARE INC.,144EDD0B-6DB3-4048-A423-2F016AB669D5,Jon,Lin
2013-06-26 17:59:14 UTC,john.balingit@molinahealthcare.com,MOLINA HEALTHCARE INC.,144EDD0B-6DB3-4048-A423-2F016AB669D5,John,Balingit
2013-06-26 17:59:42 UTC,daniel.kang@molinahealthcare.com,MOLINA HEALTHCARE INC.,144EDD0B-6DB3-4048-A423-2F016AB669D5,Daniel,kang

#
# 2013-07-27 Thurs 10 am
#

created_at,email,company_name,company_guid,first_name,last_name
2013-06-26 20:32:34 UTC,nick.bianco@sungard.com,SunGard,76C6F530-40C1-446D-A5D5-A66E78605149,Nick,Bianco
2013-06-26 20:47:39 UTC,john.kirst@nrgenergy.com,Green Mountain Energy Company,277DB6A2-B997-41D8-8CD4-1604B1C934F5,John,Kirst
2013-06-26 20:52:19 UTC,aaron.anthony@sungard.com,SunGard,76C6F530-40C1-446D-A5D5-A66E78605149,Aaron,Anthony
2013-06-26 21:19:45 UTC,negreteJ@pbworld.com,PB Services Inc,D0002744-5BD0-416D-96BC-4A39713F7087,Jeff,Negrete
2013-06-26 21:20:47 UTC,lucyA@pbworld.com,PB Services Inc,D0002744-5BD0-416D-96BC-4A39713F7087,Andrew ,Saunders
2013-06-26 21:21:36 UTC,ricedg@pbworld.com,PB Services Inc,D0002744-5BD0-416D-96BC-4A39713F7087,David,Rice
2013-06-26 21:36:41 UTC,mieczyslaw.wroblewsk@sungard.com,SunGard,76C6F530-40C1-446D-A5D5-A66E78605149,Mieczyslaw,Wroblewsk
2013-06-26 21:43:16 UTC,stephen.chao@sungard.com,SunGard,76C6F530-40C1-446D-A5D5-A66E78605149,Stephen,Chao
2013-06-26 22:22:06 UTC,mpkelso@gmail.com,CARREKER ICOM(803305411),530B441B-9C4D-4972-A1A4-7B9FEBFFA81E,Mike,Kelso
2013-06-26 22:25:03 UTC,matthew.nowlin@watson.com,ACTAVIS GROUP PTC EHF,B6B7B823-441E-4E77-906F-32F357F3EB6C,Matthew,Nowlin
2013-06-26 22:45:33 UTC,charles.davenport@sungard.com,SunGard,76C6F530-40C1-446D-A5D5-A66E78605149,Charles,Davenport
2013-06-26 23:52:32 UTC,phillip.johnson@sungard.com,SunGard,76C6F530-40C1-446D-A5D5-A66E78605149,Phillip,Johnson
2013-06-27 01:56:09 UTC,vishwas.tiwari@sungard.com,SunGard,76C6F530-40C1-446D-A5D5-A66E78605149,Vishwas,Tiwari
2013-06-27 04:46:13 UTC,nilesh.goswami@sungard.com,SunGard,76C6F530-40C1-446D-A5D5-A66E78605149,Nilesh,Goswami
2013-06-27 08:25:09 UTC,tom.vear@sungard.com,SunGard,76C6F530-40C1-446D-A5D5-A66E78605149,Tom,Vear
2013-06-27 08:32:26 UTC,claire.wildman@sungard.com,SunGard,76C6F530-40C1-446D-A5D5-A66E78605149,Claire,Wildman
2013-06-27 09:30:04 UTC,robert.teasdale@sungard.com,SunGard,76C6F530-40C1-446D-A5D5-A66E78605149,Robert,Teasdale
2013-06-27 09:44:23 UTC,john.holland@sungard.com,SunGard,76C6F530-40C1-446D-A5D5-A66E78605149,John,Holland
2013-06-27 10:10:02 UTC,francis.thaimuriyil@sungard.com,SunGard,76C6F530-40C1-446D-A5D5-A66E78605149,Francis,Thaimuriyil
2013-06-27 10:40:33 UTC,david.watts2@capita.co.uk,Capita Secure Information Solutions Ltd (LB of Southwark),61E12A41-5113-4769-88AE-6AD55E46A0FB,David,Watts
2013-06-27 10:58:30 UTC,peter.york@sungard.com,SunGard,76C6F530-40C1-446D-A5D5-A66E78605149,Peter,York
2013-06-27 12:09:10 UTC,miral.vora@sungard.com,SunGard,76C6F530-40C1-446D-A5D5-A66E78605149,Miral,Vora
2013-06-27 12:28:19 UTC,gary.watson@sungard.com,SunGard,76C6F530-40C1-446D-A5D5-A66E78605149,Gary,Watson
2013-06-27 12:45:16 UTC,richard.wakeman@sungard.com,SunGard,76C6F530-40C1-446D-A5D5-A66E78605149,Richard,Wakeman
2013-06-27 13:17:23 UTC,prothberg@sptnet.com,GLOBAL RESOURCES MANAGEMENT GROUP, INC.,EFC88AC6-341D-465A-A677-D9D37B330E1F,Paul,Rothberg
2013-06-27 13:29:59 UTC,jason.keen@sungard.com,SunGard,76C6F530-40C1-446D-A5D5-A66E78605149,Jason,Keen
2013-06-27 13:59:55 UTC,ckearney@truwest.org,TruWest Credit Union,AAAD3884-B69B-4826-B1A3-E42B277908C0,Andrew ,Kearney

#
# 2013-07-27 Thurs 3:30 
#

created_at,email,company_name,company_guid,first_name,last_name
2013-06-27 14:11:48 UTC,michael.honeycutt@sungard.com,SunGard,76C6F530-40C1-446D-A5D5-A66E78605149,Michael,Honeycutt
2013-06-27 14:31:04 UTC,nicholas.rossino@sungard.com,SunGard,76C6F530-40C1-446D-A5D5-A66E78605149,Nicholas,Rossino
2013-06-27 14:40:14 UTC,Graig.Cameron@moodys.com,Moodys Corporation,E39AB6ED-5843-478F-A417-9074948C5DFE,Graig,Cameron
2013-06-27 14:45:23 UTC,bill.sandberg@risingsunsys.com,NETWORK FOB, INC.(200000371),29A6DC76-7A9A-4A93-90DA-DE504D9CB3BB,Bill,Sandberg
2013-06-27 15:14:34 UTC,zechariah1.adams@directenergy.com,Direct Energy - BCP Rm AUS,7AAAE956-0EBB-46D9-A2A1-60E1C91A0D2C,Zachariah,Adams
2013-06-27 15:28:03 UTC,jorge.vazquez@sungard.com,SunGard,76C6F530-40C1-446D-A5D5-A66E78605149,Jorge,Vazquez
2013-06-27 15:35:08 UTC,a.patel@makita.ca,Makita Canada Inc. - MTSA,1D866523-1BE4-441B-9A1C-4EA8F893FB3B,Axar,Patel
2013-06-27 15:36:33 UTC,f.patel@makita.ca,Makita Canada Inc. - MTSA,1D866523-1BE4-441B-9A1C-4EA8F893FB3B,Falguni,Patel
2013-06-27 15:43:15 UTC,bmstringer@mcdermott.com,MCDERMOTT INC(803306650),45CDEFCA-6287-4B88-BC2D-62051C192310,Bart,Stringer
2013-06-27 15:44:07 UTC,hitesh.patel@vendormate.com,Vendormate, Inc.,2A9C8D4C-2311-4ED5-B5C7-1E26C15F3101,Hitesh ,Patel
2013-06-27 15:55:35 UTC,john.capobianco@empire.ca,The Empire Life Insurance Company,D51ABACC-CB9B-4E36-80AC-2816AE2CD75F,John,Capobianco
2013-06-27 16:00:55 UTC,michael.burris@sungard.com,SunGard,76C6F530-40C1-446D-A5D5-A66E78605149,Michael,Burris
2013-06-27 16:10:57 UTC,mpfritzel1@mcdermott.com,MCDERMOTT INC(803306650),45CDEFCA-6287-4B88-BC2D-62051C192310,Max,Fritzel
2013-06-27 16:20:01 UTC,daren.fredrickson@globaldms.com,GLOBAL DMS (Cloud),C4D2A77D-25AE-4E1A-A735-910F2F3C8F3C,Daren,Fredrickson
2013-06-27 16:21:32 UTC,scorcoran@mcdermott.com,MCDERMOTT INC(803306650),45CDEFCA-6287-4B88-BC2D-62051C192310,Sean,Corcoran
2013-06-27 16:23:38 UTC,bstringer@mcdermott.com,MCDERMOTT INC(803306650),45CDEFCA-6287-4B88-BC2D-62051C192310,Bart,Stringer
2013-06-27 16:35:15 UTC,dlaforge@mcdermott.com,MCDERMOTT INC(803306650),45CDEFCA-6287-4B88-BC2D-62051C192310,Derrick,Laforge
2013-06-27 16:47:19 UTC,helpdesk@people20.com,People 2.0 Global, Inc.,296A9B47-120C-42D7-991B-3A90EA877A7C,Help,desk
2013-06-27 17:52:14 UTC,vlai@verusfinancial.com,VERUS FINANCIAL, LLC,ABAF64D0-863C-45B5-BA84-C887E7AF8DFC,Vincent ,Lai 
2013-06-27 17:53:02 UTC,wchang@verusfinancial.com,VERUS FINANCIAL, LLC,ABAF64D0-863C-45B5-BA84-C887E7AF8DFC,William ,Chang 
2013-06-27 17:53:57 UTC,jchang@verusfinancial.com,VERUS FINANCIAL, LLC,ABAF64D0-863C-45B5-BA84-C887E7AF8DFC,James ,Chang
2013-06-27 18:33:55 UTC,carl.thommen@sungard.com,SunGard,76C6F530-40C1-446D-A5D5-A66E78605149,Carl,Thommen
2013-06-27 19:03:12 UTC,jsargent@argogroupus.com,ARGO GROUP US, INC.,021FFCB1-C4FA-45DA-A1DB-9234FF7BE1D0,James ,Sargent 
2013-06-27 19:05:40 UTC,brian.rice@kellogg.com,KELLOGG COMPANY,7ED5BF7B-4D34-4B7D-8511-677918A26B9A,Brian ,Rice

#
# 2013-06-28 Fri 8:30
#

created_at,email,company_name,company_guid,first_name,last_name
2013-06-27 19:24:51 UTC,Salvador.millan@kellogg.com,KELLOGG COMPANY,7ED5BF7B-4D34-4B7D-8511-677918A26B9A,Salvador,Millan
2013-06-27 20:17:14 UTC,smujeeb@everydayhealthinc.com,EVERYDAY HEALTH, INC.,75E7529A-A4F3-4D83-9415-8D68A77D95BE,Sayed,Mujeeb
2013-06-27 20:45:57 UTC,Luis.Aviles.WU@westernunion.com,Western Union Financial Services Inc  MTSA,F5BC98FD-886D-44AE-ACAF-96275AA40AF6,Luis,Aviles
2013-06-27 22:33:13 UTC,natalie.cushman@sungard.com,SunGard,76C6F530-40C1-446D-A5D5-A66E78605149,Natalie,Cushman
2013-06-27 23:54:48 UTC,cody.smith@sungard.com,SunGard,76C6F530-40C1-446D-A5D5-A66E78605149,Cody,Smith
2013-06-28 03:04:04 UTC,ronika.rathod@sungard.com,SunGard,76C6F530-40C1-446D-A5D5-A66E78605149,Ronika,Rathod
2013-06-28 03:31:38 UTC,shyam.mungra@sungard.com,SunGard,76C6F530-40C1-446D-A5D5-A66E78605149,Shyam,Mungra
2013-06-28 03:37:40 UTC,robert.stout@sungard.com,SunGard,76C6F530-40C1-446D-A5D5-A66E78605149,Robert,Stout
2013-06-28 05:28:00 UTC,erik.allison@sungard.com,SunGard,76C6F530-40C1-446D-A5D5-A66E78605149,Erik,Allison
2013-06-28 06:49:26 UTC,louis.peaks@sungard.com,SunGard,76C6F530-40C1-446D-A5D5-A66E78605149,Louis,Peaks





