customer	item_type	item	kva	kwh_consumed	energy_consumed	tonnes_carbon	num_ps
test		device	IPDUSASUKLTCA1BT42B	1.4316475	1011.8884550	2023.7769101	0.8702241	1
tes		device	IPDUSASUKLTCA1BT42A	1.3848163	978.7881814	1957.5763628	0.8417578	1
test		area	LTCA1	2.8164638	1990.6766364	3981.3532728	1.7119819	2
test		cabinet	LTCA1BT42	2.8164638	1990.6766364	3981.3532728	1.7119819	2
